{
    "ocrTexts": {
        "invoices": [
            "FATURA COMERCIAL",
            "COMMERCIAL INVOICE",
            "FACTURA COMERCIAL",
            "FATURA COMER",
            "The terms and conditions set forth on this invoice",
            "INVOICE TOTAL",
            "invoice Address:-",
            "THE EXPORTER OF THE PRODUCTS COVERED BY THIS DOCUMENT DECLARES THAT",
            "FRANKISCHE",
            "Invoice No.:",
            "FACTURA",
            "Invoice NO:",
            "INVOICE"
        ]
    },
    "regExpressions": [
        {
            "expression": "(ELD\\d\\d\\d)\/\\d\\d",
            "removeTextMatchValue": ""
        },
        {
            "expression": "(ELD\\d\\d\\d)[[I-L]]\\d\\d",
            "removeTextMatchValue": ""
        },
        {
            "expression": "(INVOICE\\s\\d{9})",
            "removeTextMatchValue": "INVOICE"
        },
        {
            "expression": "(Invoice No:\\s\\d{7})",
            "removeTextMatchValue": "Invoice No:"
        },
        {
            "expression": "(INVOICE No:\\s\\d{9})",
            "removeTextMatchValue": "INVOICE No:"
        },
        {
            "expression": "(INVOICE NO.:\\s\\d{8})",
            "removeTextMatchValue": "INVOICE NO.:"
        },
        {
            "expression": "(ARN\\d{2}\/\\d{3})",
            "removeTextMatchValue": ""
        }
    ],
    "textPosition": [
        {
            "text": "Sold to No",
            "direction": "UP",
            "jumps":1,
            "regExpression": "(\\d{10})",
            "removeTextMatchValue":""
        },
        {
            "text": "C. I. No.",
            "direction": "DOWN",
            "jumps":1,
            "regExpression": "(\\d{10})",
            "removeTextMatchValue":""
        },
        {
            "text": "CI NO.:",
            "direction": "DOWN",
            "jumps":1,
            "regExpression": "(\\d{10})",
            "removeTextMatchValue":""
        },
        {
            "text": "Invoice / BOL / SID",
            "direction": "DOWN",
            "jumps":1,
            "regExpression": "(\\d{10})",
            "removeTextMatchValue":""
        },
        {
            "text": "Invoice / BOL / SID",
            "direction": "DOWN",
            "jumps":2,
            "regExpression": "(\\d{10})",
            "removeTextMatchValue":""
        },
        {
            "text": "Invoice / BOL / SID",
            "direction": "DOWN",
            "jumps":2,
            "regExpression": "(\\d{8})",
            "removeTextMatchValue":""
        },
        {
            "text": "INVOICE #",
            "direction": "DOWN",
            "jumps":1,
            "regExpression": "(\\d{8})",
            "removeTextMatchValue":""
        },
        {
            "text": "Invoice No.",
            "direction": "DOWN",
            "jumps":5,
            "regExpression": "(\\d{6})",
            "removeTextMatchValue":""
        },
        {
            "text": "INVOICE NO.",
            "direction": "DOWN",
            "jumps":3,
            "regExpression": "(\\d{10})",
            "removeTextMatchValue":""
        },
        {
            "text": "INVOICE NO.",
            "direction": "DOWN",
            "jumps":2,
            "regExpression": "(\\d{10})",
            "removeTextMatchValue":""
        },
        {
            "text": "INVOICE",
            "direction": "DOWN",
            "jumps":5,
            "regExpression": "(FE\\d{6})",
            "removeTextMatchValue":""
        },
        {
            "text": "INVOICE",
            "direction": "DOWN",
            "jumps":6,
            "regExpression": "(FE\\d{6})",
            "removeTextMatchValue":""
        },
        {
            "text": "Invoice",
            "direction": "DOWN",
            "jumps":3,
            "regExpression": "(\\d{5})",
            "removeTextMatchValue":""
        },
        {
            "text": "No :",
            "direction": "DOWN",
            "jumps":1,
            "regExpression": "(\\d{5})",
            "removeTextMatchValue":""
        },
        {
            "text": "No:",
            "direction": "DOWN",
            "jumps":1,
            "regExpression": "(\\d{5})",
            "removeTextMatchValue":""
        },
        {
            "text": "nota de envio :",
            "direction": "DOWN",
            "jumps":1,
            "regExpression": "(\\d{7})",
            "removeTextMatchValue":""
        },
        {
            "text": "Packing List No.",
            "direction": "UP",
            "jumps":2,
            "regExpression": "(\\d{10})",
            "removeTextMatchValue":""
        },
        {
            "text": "PACKING SLIP NO.",
            "direction": "DOWN",
            "jumps":3,
            "regExpression": "(\\d{5})",
            "removeTextMatchValue":""
        },
        {
            "text": "Invoice No:",
            "direction": "DOWN",
            "jumps":1,
            "regExpression": "(\\d{5})",
            "removeTextMatchValue":""
        },
        {
            "text": "Invoice No",
            "direction": "DOWN",
            "jumps":2,
            "regExpression": "(\\d{10})",
            "removeTextMatchValue":""
        },
        {
            "text": "Alternate SID#:",
            "direction": "DOWN",
            "jumps":1,
            "regExpression": "(\\d{8})",
            "removeTextMatchValue":""
        },
        {
            "text": "FACTURA",
            "direction": "DOWN",
            "jumps":2,
            "regExpression": "(\\d{5})",
            "removeTextMatchValue":""
        },
        {
            "text": "Factura",
            "direction": "DOWN",
            "jumps":4,
            "regExpression": "(\\d{10})",
            "removeTextMatchValue":""
        },
        {
            "text": "Invoice",
            "direction": "DOWN",
            "jumps":1,
            "regExpression": "([ABC]\\d{4}\/\\d{1,2}\/\\d{1,2})",
            "removeTextMatchValue":""
        }
    ]
}